<?xml version="1.0" encoding="UTF-8"?>
<glyph name="uni00C9" format="1">
  <advance width="377"/>
  <unicode hex="00C9"/>
  <outline>
    <contour>
      <point x="142,922" y="755" type="curve" smooth="yes"/>
      <point x="171,266" y="818" type="line"/>
      <point x="217,5" y="818" type="line" smooth="yes"/>
      <point x="240,641" y="818"/>
      <point x="260,703" y="817"/>
      <point x="260,75" y="817" type="curve" smooth="yes"/>
      <point x="265,5" y="812" type="line"/>
      <point x="264,938" y="810,094"/>
      <point x="265,5" y="810,5"/>
      <point x="264,5" y="808,844" type="curve" smooth="yes"/>
      <point x="261,438" y="803,812"/>
      <point x="236,938" y="771,781"/>
      <point x="217,484" y="745,969" type="curve" smooth="yes"/>
      <point x="170" y="683" type="line"/>
      <point x="143,5" y="683" type="line" smooth="yes"/>
      <point x="138,938" y="683"/>
      <point x="125,156" y="682,844"/>
      <point x="120,688" y="683,578" type="curve" smooth="yes"/>
      <point x="119,281" y="683,812"/>
      <point x="114,391" y="684,781"/>
      <point x="114,391" y="689,609" type="curve" smooth="yes"/>
      <point x="114,391" y="690,141"/>
      <point x="114,797" y="691,766"/>
      <point x="115,031" y="692,234" type="curve" smooth="yes"/>
      <point x="115,875" y="693,922"/>
      <point x="128,984" y="722,156"/>
    </contour>
    <contour>
      <point x="-4" y="-5" type="line"/>
      <point x="-4" y="581" type="line"/>
      <point x="334" y="581" type="line"/>
      <point x="334" y="496" type="line"/>
      <point x="90" y="496" type="line"/>
      <point x="90" y="332" type="line"/>
      <point x="325" y="332" type="line"/>
      <point x="325" y="245" type="line"/>
      <point x="90" y="245" type="line"/>
      <point x="90" y="79" type="line"/>
      <point x="343" y="79" type="line"/>
      <point x="343" y="-5" type="line"/>
    </contour>
    <contour>
      <point x="212" y="401" type="line"/>
      <point x="202" y="401" type="line"/>
      <point x="202" y="501" type="line"/>
      <point x="212" y="501" type="line"/>
    </contour>
    <contour>
      <point x="207" y="150" type="line"/>
      <point x="197" y="150" type="line"/>
      <point x="197" y="250" type="line"/>
      <point x="207" y="250" type="line"/>
    </contour>
    <contour>
      <point x="174" y="-100" type="line"/>
      <point x="164" y="-100" type="line"/>
      <point x="164" y="0" type="line"/>
      <point x="174" y="0" type="line"/>
    </contour>
    <contour>
      <point x="218,5" y="649" type="line"/>
      <point x="208,5" y="649" type="line"/>
      <point x="208,5" y="749" type="line"/>
      <point x="218,5" y="749" type="line"/>
    </contour>
    <contour>
      <point x="172,5" y="588" type="line"/>
      <point x="162,5" y="588" type="line"/>
      <point x="162,5" y="688" type="line"/>
      <point x="172,5" y="688" type="line"/>
    </contour>
    <contour>
      <point x="148,5" y="588" type="line"/>
      <point x="138,5" y="588" type="line"/>
      <point x="138,5" y="688" type="line"/>
      <point x="148,5" y="688" type="line"/>
    </contour>
    <contour>
      <point x="124,391" y="589,609" type="line" smooth="yes"/>
      <point x="124,391" y="589,609"/>
      <point x="121,203" y="593,625"/>
      <point x="122,312" y="593,438" type="curve" smooth="yes"/>
      <point x="124,469" y="593,094"/>
      <point x="129,422" y="593"/>
      <point x="143,5" y="593" type="curve" smooth="yes"/>
      <point x="165" y="593" type="line"/>
      <point x="209,516" y="652,031" type="line" smooth="yes"/>
      <point x="231,109" y="680,281"/>
      <point x="253,172" y="709,469"/>
      <point x="255,938" y="714,031" type="curve" smooth="yes"/>
      <point x="256,266" y="714,562"/>
      <point x="255,5" y="712"/>
      <point x="255,5" y="712" type="curve" smooth="yes"/>
      <point x="255,5" y="812" type="line"/>
      <point x="265,5" y="812" type="line"/>
      <point x="265,5" y="712" type="line" smooth="yes"/>
      <point x="265,5" y="711,375"/>
      <point x="265,5" y="710,5"/>
      <point x="264,5" y="708,844" type="curve" smooth="yes"/>
      <point x="260,453" y="702,188"/>
      <point x="226,969" y="658,484"/>
      <point x="217,484" y="645,969" type="curve" smooth="yes"/>
      <point x="202,094" y="625,688"/>
      <point x="186,828" y="605,328"/>
      <point x="171,5" y="584,984" type="curve" smooth="yes"/>
      <point x="170" y="583" type="line"/>
      <point x="143,5" y="583" type="line" smooth="yes"/>
      <point x="133,625" y="583"/>
      <point x="124,781" y="582,906"/>
      <point x="120,688" y="583,578" type="curve" smooth="yes"/>
      <point x="115,016" y="584,5"/>
      <point x="114,453" y="587,156"/>
      <point x="114,391" y="589,609" type="curve" smooth="yes"/>
      <point x="113,516" y="622,938"/>
      <point x="114,391" y="656,281"/>
      <point x="114,391" y="689,609" type="curve"/>
      <point x="124,391" y="689,609" type="line"/>
    </contour>
    <contour>
      <point x="6" y="-95" type="line"/>
      <point x="333" y="-95" type="line"/>
      <point x="333" y="0" type="line"/>
      <point x="343" y="0" type="line"/>
      <point x="343" y="-100" type="line" smooth="yes"/>
      <point x="343" y="-105" type="line"/>
      <point x="338" y="-105" type="line" smooth="yes"/>
      <point x="169" y="-105" type="line" smooth="yes"/>
      <point x="-4" y="-105" type="line"/>
      <point x="-4" y="-100" type="line" smooth="yes"/>
      <point x="-4" y="0" type="line"/>
      <point x="6" y="0" type="line"/>
    </contour>
    <contour>
      <point x="85" y="155" type="line"/>
      <point x="315" y="155" type="line"/>
      <point x="315" y="250" type="line"/>
      <point x="325" y="250" type="line"/>
      <point x="325" y="150" type="line" smooth="yes"/>
      <point x="325" y="145" type="line"/>
      <point x="320" y="145" type="line" smooth="yes"/>
      <point x="202" y="145" type="line" smooth="yes"/>
      <point x="85" y="145" type="line"/>
    </contour>
    <contour>
      <point x="207" y="406" type="line" smooth="yes"/>
      <point x="324" y="406" type="line"/>
      <point x="324" y="501" type="line"/>
      <point x="334" y="501" type="line"/>
      <point x="334" y="401" type="line" smooth="yes"/>
      <point x="334" y="396" type="line"/>
      <point x="329" y="396" type="line" smooth="yes"/>
      <point x="207" y="396" type="line" smooth="yes"/>
      <point x="85" y="396" type="line"/>
      <point x="85" y="406" type="line"/>
    </contour>
  </outline>
  <lib>
    <dict>
      <key>com.fontlab.hintData</key>
      <dict>
	<key>hhints</key>
	<array>
	  <dict>
	    <key>position</key>	    <integer>-100</integer>
	    <key>width</key>	    <integer>5</integer>
	  </dict>
	  <dict>
	    <key>position</key>	    <integer>-5</integer>
	    <key>width</key>	    <integer>84</integer>
	  </dict>
	  <dict>
	    <key>position</key>	    <integer>-5</integer>
	    <key>width</key>	    <integer>5</integer>
	  </dict>
	  <dict>
	    <key>position</key>	    <integer>145</integer>
	    <key>width</key>	    <integer>10</integer>
	  </dict>
	  <dict>
	    <key>position</key>	    <integer>150</integer>
	    <key>width</key>	    <integer>5</integer>
	  </dict>
	  <dict>
	    <key>position</key>	    <integer>245</integer>
	    <key>width</key>	    <integer>87</integer>
	  </dict>
	  <dict>
	    <key>position</key>	    <integer>245</integer>
	    <key>width</key>	    <integer>5</integer>
	  </dict>
	  <dict>
	    <key>position</key>	    <integer>396</integer>
	    <key>width</key>	    <integer>10</integer>
	  </dict>
	  <dict>
	    <key>position</key>	    <integer>401</integer>
	    <key>width</key>	    <integer>5</integer>
	  </dict>
	  <dict>
	    <key>position</key>	    <integer>496</integer>
	    <key>width</key>	    <integer>5</integer>
	  </dict>
	  <dict>
	    <key>position</key>	    <integer>583</integer>
	    <key>width</key>	    <integer>21</integer>
	  </dict>
	  <dict>
	    <key>position</key>	    <integer>588</integer>
	    <key>width</key>	    <integer>5</integer>
	  </dict>
	  <dict>
	    <key>position</key>	    <integer>683</integer>
	    <key>width</key>	    <integer>5</integer>
	  </dict>
	</array>
	<key>vhints</key>
	<array>
	  <dict>
	    <key>position</key>
	    <integer>-4</integer>
	    <key>width</key>
	    <integer>10</integer>
	  </dict>
	  <dict>
	    <key>position</key>
	    <integer>85</integer>
	    <key>width</key>
	    <integer>5</integer>
	  </dict>
	  <dict>
	    <key>position</key>
	    <integer>114</integer>
	    <key>width</key>
	    <integer>10</integer>
	  </dict>
	  <dict>
	    <key>position</key>
	    <integer>138</integer>
	    <key>width</key>
	    <integer>10</integer>
	  </dict>
	  <dict>
	    <key>position</key>
	    <integer>164</integer>
	    <key>width</key>
	    <integer>10</integer>
	  </dict>
	  <dict>
	    <key>position</key>
	    <integer>197</integer>
	    <key>width</key>
	    <integer>10</integer>
	  </dict>
	  <dict>
	    <key>position</key>
	    <integer>202</integer>
	    <key>width</key>
	    <integer>10</integer>
	  </dict>
	  <dict>
	    <key>position</key>
	    <integer>208</integer>
	    <key>width</key>
	    <integer>10</integer>
	  </dict>
	  <dict>
	    <key>position</key>
	    <integer>315</integer>
	    <key>width</key>
	    <integer>10</integer>
	  </dict>
	  <dict>
	    <key>position</key>
	    <integer>324</integer>
	    <key>width</key>
	    <integer>10</integer>
	  </dict>
	  <dict>
	    <key>position</key>
	    <integer>333</integer>
	    <key>width</key>
	    <integer>10</integer>
	  </dict>
	</array>
      </dict>
    </dict>
  </lib>
</glyph>
